C:\Users\MElShemy\Desktop\crossEngDemo2\crossengage-coding-challenge-fullstack-593fbb254a7e\server\src\main\java\com\crossengage\services\AccountRepository.java
C:\Users\MElShemy\Desktop\crossEngDemo2\crossengage-coding-challenge-fullstack-593fbb254a7e\server\src\main\java\com\crossengage\Application.java
C:\Users\MElShemy\Desktop\crossEngDemo2\crossengage-coding-challenge-fullstack-593fbb254a7e\server\src\main\java\com\crossengage\UiApiController.java
C:\Users\MElShemy\Desktop\crossEngDemo2\crossengage-coding-challenge-fullstack-593fbb254a7e\server\src\main\java\com\crossengage\model\Account.java
C:\Users\MElShemy\Desktop\crossEngDemo2\crossengage-coding-challenge-fullstack-593fbb254a7e\server\src\main\java\com\crossengage\services\AccountValidator.java
